@startuml doc-files/core01_01_SequenceExtensionManagerDesign.png
  actor Actor
  participant "ExtensionManagerAction" as ExtensionManagerAction
  participant "JOptionPane" as JOption
 participant "ExtensionManager" as ExtensionManager
  participant "ext : Extension" as Extension

  Actor -> ExtensionManagerAction : starts use case
  ExtensionManagerAction -> ExtensionManager : extensionsList=getExtensions()
  ExtensionManagerAction -> JOption : showExtensions()
 loop user's choice
  Actor -> JOption : select Extension
   ExtensionManagerAction -> ExtensionManager : ext=getExtension(extensionsList[i].getName())
    alt extensionsList[i].isSelected()
	 ExtensionManager -> Extension : disableExtension()
    else else
     ExtensionManager -> Extension : enableExtension()
  end
 end
@enduml