@startuml doc-files/core01_01_sequence_diagram2.png

actor Actor
participant UIExtensionNavigator as UIExtNav
participant NavigatorPanel as NavPan
participant NavigatorController as NavCtrl
participant UIController as UICtrl
participant ExtensionManager as ExtMng

Actor -> UIExtNav : starts use case

create NavPan
UIExtNav -> NavPan : create()

create NavCtrl
NavPan -> NavCtrl : create()

NavPan -> NavCtrl : getEnabledExtList()

NavCtrl -> UICtrl : getEnabledExtList()

UICtrl -> ExtMng : getEnabledExtList()

NavPan --> Actor : shows enabled extensions

NavPan -> NavCtrl : getDisabledExtList()

NavCtrl -> UICtrl : getDisabledExtList()

UICtrl -> ExtMng : getDisabledExtList()

NavPan --> Actor : shows disabled extensions

@enduml