@startuml doc-files/CreateCompanySequenceDiagram.png
actor User as us
participant UiExtensionContact as ec
participant ContactsMainMenu as cm
participant MenuCreateCompany as mc
participant FilesManager as fm
participant CompanyController as cc
participant Company as c
participant JpaCompanyRepository as jpac

activate us
us -> ec : selectContact()

activate ec
create cm
ec -> cm : createContactsMainMenu()
cm --> us : mainMenu
activate cm
us -> cm : choose Company as type of contact
cm -> cm : getSelectedItem()
us -> cm : select option create


create mc
cm -> mc : create()
activate mc
create fm
mc -> fm
mc --> us : shows menu create company

us -> mc : insert information of Company (Designation, Image)


create cc
mc -> cc : create()

mc -> fm : byte[] fc=fileToByteArray(File f)
activate fm
deactivate fm
mc -> cc : c=NewContact(de,fc)

activate cc
create c
cc -> c : c=NewContact(de,fc)
mc -> cc : c=SaveContact(c)

create jpac
cc -> jpac : create()
cc -> jpac : addContact()
activate jpac
deactivate us

deactivate ec

deactivate cm

deactivate mc

deactivate cc

@enduml