@startuml doc-files/ipc04_02_SequenceDiagramWSheetToFileAnalysis.png
  actor Actor
  participant "<<Analysis>>\nLinkingFileExportAction" as EAction
  participant "<<Analysis>>\n UILinkingFileExport" as UI
 participant "<<Analysis>>\nLinkingFileExportController" as LFEC
  participant "<<Analysis>>\nLinkingFileExport" as LFE
  participant "<<Analysis>>\nLinkingFile" as LF
  participant "<<Analysis>>\nExportThreadRun" as EThread
  participant "<<Analysis>>\nThread" as Thread

  Actor -> EAction : starts use case
  EAction -> UI : create()
  UI ->Actor : ask separator
  Actor ->UI : choose separator
  UI -> LFEC : setSeparator()
opt optional
  UI ->Actor : ask header
  Actor ->UI : choose header
  UI -> LFEC : setHeader()
end
  UI ->Actor : ask file to import
  Actor ->UI : choose file
  UI -> LFEC : setFileToImport
opt import option
  Actor ->UI : select Import Option
  UI -> LFEC : import()
  LFEC -> LFE: import()
  LFE -> LF: create()
  LFE -> EThread: create()
  LFE -> Thread: create()
  LFE -> Thread: start()
end
opt unlink option
  Actor ->UI : select Unlink Option
  UI -> LFEC : stopImport()
  LFEC -> LFE: stopExport()
  LFE -> Thread: interupt()
end
@enduml