@startuml doc-files/core08_01_ClassDiagram.png

class MenuBar
class ExportXMLUI
class ExportXMLController
class UIController
class ExportXML
class Workbook
class Spreadsheet
class Cell
class Address

ExportXMLController : exportXMLFile(ListString tags)
ExportXMLController : exportWorkbook()
ExportXMLController : exportPages(List<int> numberOfPage)
ExportXMLController : exportPartOfPage(int numberOfPage)

UIController : getActiveWorkbook()

ExportXML : exportWorkbook()
ExportXML : exportPages(List<int> numberOfPage)
ExportXML : exportPartOfPage(int numberOfPage)

Workbook : getSpreadsheetCount()
Workbook : getSpreadsheet(index)

Spreadsheet : selectAll()
Spreadsheet : ListCell=getSelectedCells()

Cell : content
Cell : getContent()
Cell : Address=getAddres()

Address : column
Address : row
Address : getColumn()
Address : getRow()

MenuBar ..> ExportXMLUI
MenuBar ..> ExportXMLController
ExportXMLUI ..> ExportXMLController
ExportXMLController ..> UIController
ExportXMLController ..> ExportXML
ExportXML --> Workbook
ExportXML --> Spreadsheet
ExportXML --> Cell
ExportXML --> Address


@enduml