@startuml doc-files/analise_Diagram_Macros01.png
 participant "User" as User
 participant "Cell" as Cell

 User -> Cell : Insert block of instructions
 Cell->Fomula : calculate the result
 Cell->User : Show the result
 @enduml
