@startuml doc-files/ClassDiagram_macros01.png

CellImpl : storeContent(content)

CellImpl : updateDependencies()

CellImpl : removeDependent(this)

CellImpl : fireContentChanged()

CellImpl : reevaluate()


FormulaCompiler <|-- CellImpl

FormulaCompiler : compile(this,content)

ExpressionCompiler <|-- FormulaCompiler

ExpressionCompiler : getStarter()

ExpressionCompiler : compile(cell, source)

Formula <|-- FormulaCompiler

Formula : create()
@enduml