@startuml doc-files/Design_Diagram_Macros01.png
 participant "User" as User
 participant "CellImpl" as CellImpl
 participant "FormulaCompiler" as FormulaCompiler
 participant "ExpressionCompiler" as ExpressionCompiler
 participant "Formula" as Formula

 User -> CellImpl : Insert block of instructions
 CellImpl->CellImpl : storeContent(content)
 CellImpl->FormulaCompiler : compile(this,content)
activate CellImpl
loop
 FormulaCompiler->ExpressionCompiler : getStarter()
 FormulaCompiler->ExpressionCompiler : compile(cell,source)
 FormulaCompiler->Formula : create()
end
deactivate CellImpl
 CellImpl->CellImpl : updateDependencies()
 CellImpl->CellImpl : removeDependent(this)
 CellImpl->CellImpl : fireContentChanged()
 CellImpl->CellImpl : reevaluate()

 @enduml
