@startuml doc-files/macros04_01_SideBarAnalysis.png
  actor Actor
  participant "<<Analysis>>\nUIConditionalFormattingSingleCellExtension" as UICFSCExtension
  participant "<<Analysis>>\nConditionalFormattingSingleCellPanel" as CFSCpanel
  participant "<<Analysis>>\nUIController" as UIController

  Actor -> UICFSCExtension : starts use case
  UICFSCExtension -> CFSCpanel : create()
  CFSCpanel ->UIController : getLastConditionalFormattedCells()
  CFSCpanel -> Actor: show last Conditional Formatted Cells
@enduml