@startuml doc-files/core08_02_DesignDiagram.png

actor User
participant MenuBar as mb
participant ImportXMLWindow as window
participant ImportXMLController as ixmlc
participant UIController as uic
participant ImportXML as ixml
participant Workbook as w
participant Spreadsheet as s
participant Cell as c

User -> mb : Selects to export to a xml file
mb --> window : create()
window--> ixmlc : create(uic)
window --> User : Asks what to import
User -> window : Selects what to import and edits the tags
window -> ixmlc : importXMLFile(tags,file)
ixmlc -> ixml : create(file, tags,controller)
ixml -> uic : getActiveWorkbook()

alt import workbook
    window -> ixmlc : importWorkbook()
    ixmlc -> ixml : importWorkbook()
    ixml -> w : getSpreadsheetCount()
    loop :all of the pages
        ixml -> w : getSpreadsheet(index)
        ixml -> s : getCell(column,row)
        loop :all cells
            ixml -> c : setContent(value)
        end
    end
else import page(s)
    window -> ixmlc : importWorkbook()
    ixmlc -> ixml : importWorkbook()
    ixml -> w : getSpreadsheetCount()
    loop :all of the pages
        ixml -> w : getSpreadsheet(index)
        ixml -> s : getCell(column,row)
        loop :all cells
            ixml -> c : setContent(value)
        end
    end
else import partOfPage
    window -> ixmlc : importPartOfPage(numberOfPage)
    ixmlc -> ixml : importPartOfPage(numberOfPage)
    ixml ->w : getSpreadsheet(numberOfPage)
    loop :for all cells with content in file
        ixml -> s : getCell(column,row)
        ixml -> c : setContent(value)
    end
end

@enduml