@startuml
actor User as us
participant UiExtensionContact as ec
participant ContactsMainMenu as cm
participant MenuCreate as mc
participant ContactsController as cc
participant Contacts as c
participant JpaContactsRepository as jpac

activate us
us -> ec : selectContact()

activate ec
create cm
ec -> cm : createContactsMainMenu()
cm --> us : mainMenu
us -> cm : selectOptionCreate()

activate cm
create mc
cm -> mc : create()
mc --> us : createMenu

us -> mc : insertData(FirstName, LastName, Image)()


activate mc
create cc
mc -> cc : create()
mc -> cc : createContact(fn,ln,img)()

activate cc
cc -> c : c=newContact()

create jpac
cc -> jpac : create()
cc -> jpac : addContact()

deactivate us

deactivate ec

deactivate cm

deactivate mc

deactivate cc

@enduml