@startuml /doc-files/ipc01_02_analysis_receive.png
actor User
participant "<<analysis>>\nUI" as UI
participant "<<analysis>>\nController" as Ctrl
participant "<<analysis>>\nUIController" as UICtrl

User->UI: waits to receive cell
activate UI
UI->Ctrl: getReceivedCell()
activate Ctrl
Ctrl->Ctrl: receiveCell()
deactivate UI
Ctrl->UICtrl: setActiveCell(cell)
activate UICtrl
deactivate UICtrl


@enduml