@startuml doc-files/ipc01_01_design_receive.png
actor User
participant MenuInitiate as MUI
participant SearchOnAnotherInstanceController as RCtrl
participant NetworkFactory as NF
participant UDP_ServerImpl as UDPS
participant Thread as Thread
participant Thread as Thread2
participant TCP_ServerImpl_03 as TCPS

User->MUI: start receiving info
activate MUI
MUI->RCtrl: create()
activate RCtrl
MUI->RCtrl: StartUDPServer()
RCtrl->NF: getUDPServerIMPL()
activate NF
NF->UDPS: create()
deactivate NF

RCtrl->Thread: create()
activate Thread
RCtrl->Thread: start()
MUI->RCtrl: StartTCPServer()
RCtrl->NF: getTCPServerIMPL()
NF->TCPS: create()
RCtrl->Thread2: create()
activate Thread2
RCtrl->Thread2: start()
RCtrl->Thread2: join()

@enduml