@startuml doc-files/CreateAddressSequenceDiagram.png
actor User  as user
participant UIExtensionAddress as uiexaddr
participant AddressMainMenu as ui
participant MenuCreateAddress as menucreate
participant AddressController as addrctr
participant JPAAddressRepository as addrrep
participant Address as addr
participant JPAPersonRepository as contrep
participant Person as cont

user->uiexaddr : Select AddressMainMenu
create ui
uiexaddr -> ui : create()
create menucreate
ui->menucreate:create()
create addrctr
menucreate -> addrctr :create()
menucreate->addrctr :allContacts=getAllContacts()
create contrep
addrctr -> contrep :create()
addrctr -> contrep :allContacts=getAllContacts()
menucreate --> user :show AddressCreateMenu
user -> menucreate :insertdata(contact+addressdata)

create addr
addrctr -> addr :mainAddr/secAddr=new Address(contact,street,area,zipcode,city,country)
menucreate -> addrctr :saveAddress(mainAddr/secAddr)
create cont
addrctr->cont:insertMainAddress(mainAddr)/insertSecAddress(secAddress)
addrctr->contrep:editContact(contact,index)
create addrrep
addrctr -> addrrep :create()
addrctr -> addrrep :saveAddress(mainAddr/secAddr)


@enduml