@startuml doc-files/RemoveAddressSequenceDiagram.png
actor User  as user
participant UIExtensionAddress as uiexaddr
participant AddressMainMenu as ui
participant MenuRemoveAddress as menuremove
participant AddressController as addrctr
participant JPAAddressRepository as addrrep
participant Address as addr
participant JPAPersonRepository as contrep
participant Person as cont

user -> uiexaddr :Select AddressMainMenu
create ui
uiexaddr ->ui :create()
ui --> user :Address Main Menu
user -> ui : Select option remove
create menuremove
ui -> menuremove : create()
create addrctr
menuremove->addrctr : create()
menuremove->addrctr : allcontacts=getListContacts()
create addrrep
addrctr -> addrrep : create()
addrctr -> addrrep : L=getListContacts()
menuremove --> user : show contacts list
user -> menuremove :Select contact
menuremove -->user :show contact's addresses
user -> menuremove :Select an Adress to Remove
menuremove -> addrctr :deleteAddress(address)
addrctr -> cont :insertMainAddress(null)/insertSecAddress(null)
addrctr->contrep:editContact(contact,index)
addrctr -> addrrep : deleteAddress(a)
@enduml