@startuml doc-files/uc_realization1.png
 actor User
  participant "<<analysis>>\nCreateFormUI" as UI
  participant "<<analysis>>\nCreateFormCtrl" as ctrl

	participant "<<analysis>>\nSender" as FormCreator
  participant "<<analysis>>\nForm" as form


  User -> UI : create form
  activate UI
  create ctrl
  UI -> ctrl : create()
  deactivate UI
  activate ctrl
  create form
  	ctrl -> form : create()
  deactivate ctrl


User ->UI :choose components
User ->UI :create button
activate UI
UI->ctrl :addComponents()
UI->ctrl :createForm()
activate ctrl
ctrl->form:addComponents()
ctrl->form:getForm()
deactivate ctrl
@enduml