@startuml doc-files/core01_01_analysis_sequence_diagram2.png

actor Actor
participant "<<Analysis>>\nUIExtensionNavigator" as UIExtNav
participant "<<Analysis>>\nNavigatorPanel" as NavPan
participant "<<Analysis>>\nNavigatorController" as NavCtrl
participant "<<Analysis>>\nUIController" as UICtrl
participant "<<Analysis>>\nExtensionManager" as ExtMng

Actor -> UIExtNav : starts use case

create NavPan
UIExtNav -> NavPan : create()

create NavCtrl
NavPan -> NavCtrl : create()

NavPan -> NavCtrl : getEnabledExtList()

NavCtrl -> UICtrl : getEnabledExtList()

UICtrl -> ExtMng : getEnabledExtList()

NavPan --> Actor : shows enabled extensions

NavPan -> NavCtrl : getDisabledExtList()

NavCtrl -> UICtrl : getDisabledExtList()

UICtrl -> ExtMng : getDisabledExtList()

NavPan --> Actor : shows disabled extensions

@enduml