@startuml doc-files/ipc08_01_ClassDiagram.png

class SharingFilesExtension {
    +SharingFilesExtension()
    +UIExtension getUIExtension(UIController uiController);
}
class SharingFilesController{
    +String NAME="Sharing Files";
    #UIController uiController;
    +int port;
    +String path;
    +ArrayList<File> files;
    +SharingFilesController(UIController uiCont);
    +void startSharing(int port);
    +ArrayList<File> Search();
    +void accessSharing(String ip);
    +int getPort();
    +void setPort();
    +String getPath();
    +void setPath();
    +ArrayList<File> getFiles();

}

class SharingFilesAction{
    #UIController uiController;
    +JFrame jFsharingFiles;
    +SharingFilesAction(UIController uiController);
    #String getName();
    #void defineProperties();
    +void actionPerformed(ActionEvent event);
}

class SharingFilesFrame{
    -JButton jButton1;
    -JButton jButton2;
    -JButton jButton3;
    -JButton jButton4;
    -JButton jButton5;
    -JFileChooser jFileChooser1;
    -JLabel jLabel1;
    -JLabel jLabel2;
    -JLabel jLabel3;
    -JLabel jLabel4;
    -JLabel jLabel6;
    -JList jList1;
    -JList jList3;
    -JRadioButton jRadioButton1;
    -JRadioButton jRadioButton3;
    -JScrollPane jScrollPane1;
    -JScrollPane jScrollPane3;
    -JTextField jTextField1;
    -JTextField jTextField2;
    -final UIController uiController;
    -final SharingFilesController sharingController;
    -DefaultListModel lstModel;
    -DefaultListModel lstModel1;
    +String folderPath;
    +JFileChooser chooser;
    +JFileChooser chooser1;
    +String choosertitle;
    +String choosertitle1;
    +SharingFilesFrame(UIController ui);
	+updateComboBox(ArrayList<SharingFiles> files)
}

class SharingFilesMenu{
    +SharingFilesMenu(UIController uiController);
}

class SharingFilesUI{
    -SharingFilesMenu menu;
    +SharingFilesUI(Extension extension, UIController uiController);
    +JMenu getMenu();
}

class TcpClient{
    -int port;
    -String ip;
    +TcpClient(int port, String ip);
    +ArrayList<File> getFilesShare();
}

class TcpServer{
    +ServerSocket serverSocket;
    +Thread thread;
    +ArrayList<File> files;
    +void startSF(int port, ArrayList<File> f);
    +public TcpServer(ArrayList<File> f);
}

class JFileChooser{
    +File getSelectedFile();
    +void setCurrentDirectory(File dir);
    +void setDialogTitle(String dialogTitle);
    +void setFileSelectionMode(int mode);
    +void setAcceptAllFileFilterUsed(boolean b);
    +int showOpenDialog(Component parent);
    +File getCurrentDirectory();
    +File getSelectedFile();
}

class File{
    +String toString();
    +boolean exists();
    +boolean isFile();
    +boolean mkdir();
}

class DefaultComboBoxModel<E>{
    +DefaultComboBoxModel();
    +void addElement;
}

@enduml