@startuml doc-files/ipc01_01_design_receive.png
actor User
participant MenuInitiate as MUI
participant ReceiveWindow as RUI
participant ReceiveSelCellsController as RCtrl
participant NetworkFactory as NF
participant UDP_ServerImpl as UDPS
participant Thread as Thread
participant Thread as Thread2
participant TCP_ServerImpl as TCPS
participant Spreadsheet as SP
participant cellsReceivedList as cl

User->MUI: start receiving cells
activate MUI
MUI->RCtrl: create()
activate RCtrl
RCtrl->cl: create()
MUI->RCtrl: StartUDPServer()
RCtrl->NF: getUDPServerIMPL()
activate NF
NF->UDPS: create()
deactivate NF

RCtrl->Thread: create()
activate Thread
RCtrl->Thread: start()
MUI->RCtrl: StartTCPServer()
RCtrl->NF: getTCPServerIMPL()
NF->TCPS: create()
RCtrl->Thread2: create()
activate Thread2
RCtrl->Thread2: start()
RCtrl->Thread2: join()
loop
	RCtrl->SP: getCell()
	SP->cl: getAdress()
end
RCtrl->RCtrl: updateCells 
@enduml