@startuml doc-files/ipc01_01_design_send.png
actor User
participant MenuInitiate as MUI
participant SendWindow as SUI
participant SendSelCellsController as SCtrl
participant NetworkFactory as NF
participant UDP_ClientImpl as UDPC
participant Thread as Thread
participant TCP_ClientImpl as TCPC

User->MUI: start sending cells
activate MUI
MUI->SCtrl: create()
activate SCtrl
MUI->SCtrl: searchAvailableInstances()
SCtrl->NF: Object = getUDPClientImpl(list=availableInstances)
activate NF
NF->UDPC: create(list=availableInstances)
activate UDPC
deactivate NF
deactivate UDPC
SCtrl->Thread: create(Object)
activate Thread
SCtrl->Thread: start()
SCtrl->Thread: join()
MUI->SCtrl: List<Object> = getAvailableInstances()
MUI->SUI: create()
activate SUI
deactivate MUI
SUI->SCtrl: listToStringArray()
User->SUI: chooses one of the online instances
SUI->SCtrl: instance = getAvailableInstances().get(selected instance)
SUI->SCtrl: List<Cell> = getSelCell()
SUI->SCtrl: sendCells(instance, List<Cell>)
SCtrl->NF: Object = getTCPClientImpl(instance, List<Cell>)
activate NF
deactivate SUI
NF->TCPC: create()
activate TCPC
deactivate TCPC
SCtrl->Thread: create(Object)
SCtrl->Thread: start()
SCtrl->Thread: join()
deactivate SCtrl
deactivate Thread

@enduml